animation.__keyframes = 2
animation.__speed = 1
animation.loadEntity('parent','data/body.png',{
	imagepath='data/body.png',
	facing='left',
	ofy=48,
	y=285,
	x=355,
	speed = 1,
	name='parent',
	sx=1,
	ry=285,
	rx=355,
	sy=1,
	ofx=24,
	ox = {
		[1]=24,
	},
	oy = {
		[1]=48,
		[2]=42,
	},
	r = {
		[1]=0,
	},
})
animation.loadChildFor('parent')
animation.loadEntity('head','data/head.png',{
	imagepath='data/head.png',
	layer=-1,
	ofy=32,
	y=0,
	x=0,
	sy=1,
	ry=285,
	name='head',
	rx=355,
	sx=1,
	ofx=32,
	ox = {
		[1]=30,
	},
	oy = {
		[1]=90,
		[2]=83,
	},
	r = {
		[1]=0,
	},
})
animation.loadChildFor('parent')
animation.loadEntity('right arm','data/sleve.png',{
	imagepath='data/sleve.png',
	layer=1,
	ofy=12,
	y=0,
	x=0,
	name='right arm',
	ry=285,
	rx=355,
	sx=1,
	sy=1,
	ofx=24,
	ox = {
		[2]=24,
		[1]=21,
	},
	oy = {
		[2]=32,
		[1]=33,
	},
	r = {
		[1]=-1.22,
	},
})
animation.loadChildFor('right arm')
animation.loadEntity('right hand','data/arm.png',{
	imagepath='data/arm.png',
	ofy=32,
	y=0,
	x=0,
	sy=1,
	ry=285,
	name='right hand',
	rx=355,
	sx=1,
	ofx=12,
	ox = {
		[2]=43,
		[1]=41,
	},
	oy = {
		[1]=3,
		[2]=-1,
	},
	r = {
		[1]=0.98,
	},
})
animation.loadChildFor('parent')
animation.loadEntity('left arm','data/sleve.png',{
	imagepath='data/sleve.png',
	layer=-3,
	ofy=12,
	y=0,
	x=0,
	name='left arm',
	ry=285,
	rx=355,
	sx=1,
	sy=1,
	ofx=24,
	ox = {
		[1]=14,
		[2]=18,
	},
	oy = {
		[1]=-7,
	},
	r = {
		[1]=-1.62,
	},
})
animation.loadChildFor('left arm')
animation.loadEntity('left hand','data/arm.png',{
	imagepath='data/arm.png',
	layer=-4,
	ofy=32,
	y=0,
	x=0,
	name='left hand',
	ry=285,
	rx=355,
	sx=1,
	sy=1,
	ofx=12,
	ox = {
		[2]=-2,
		[1]=-5,
	},
	oy = {
		[1]=-6,
		[2]=-16,
	},
	r = {
		[1]=1.28,
	},
})
animation.loadChildFor('parent')
animation.loadEntity('right leg','data/leg.png',{
	imagepath='data/leg.png',
	layer=-1,
	ofy=48,
	y=0,
	x=0,
	name='right leg',
	ry=285,
	rx=355,
	sx=1,
	sy=1,
	ofx=24,
	ox = {
		[1]=33,
	},
	oy = {
		[1]=-16,
		[2]=-20,
	},
	r = {
		[1]=0.02,
	},
})
animation.loadChildFor('right leg')
animation.loadEntity('right foot','data/foot.png',{
	imagepath='data/foot.png',
	ofy=32,
	y=0,
	x=0,
	sy=1,
	ry=285,
	name='right foot',
	rx=355,
	sx=1,
	ofx=24,
	ox = {
		[1]=49,
	},
	oy = {
		[2]=-89,
		[1]=-89,
	},
	r = {
		[1]=-0.14,
	},
})
animation.loadChildFor('parent')
animation.loadEntity('left leg','data/leg.png',{
	imagepath='data/leg.png',
	layer=-2,
	ofy=48,
	y=0,
	x=0,
	name='left leg',
	ry=285,
	rx=355,
	sx=1,
	sy=1,
	ofx=24,
	ox = {
		[1]=28,
	},
	oy = {
		[1]=-17,
	},
	r = {
		[1]=-0.18,
	},
})
animation.loadChildFor('left leg')
animation.loadEntity('left foot','data/foot.png',{
	imagepath='data/foot.png',
	layer=-2,
	ofy=32,
	y=0,
	x=0,
	name='left foot',
	ry=285,
	rx=355,
	sx=1,
	sy=1,
	ofx=24,
	ox = {
		[1]=28,
	},
	oy = {
		[1]=-92,
	},
	r = {
		[1]=0,
	},
})
