animation.__keyframes = 7
animation.__speed = 0.2
animation.loadEntity('parent','data/body.png',{
	imagepath='data/body.png',
	facing='left',
	ofy=48,
	y=285,
	x=355,
	sy=1,
	sx=1,
	ry=285,
	rx=355,
	name='parent',
	ofx=24,
	ox = {
		[1]=24,
	},
	oy = {
		[1]=48,
	},
	r = {
		[1]=0,
	},
})
animation.loadChildFor('parent')
animation.loadEntity('head','data/head.png',{
	imagepath='data/head.png',
	ofy=32,
	y=0,
	x=0,
	sy=1,
	ry=285,
	name='head',
	rx=355,
	sx=1,
	ofx=32,
	ox = {
		[1]=30,
	},
	oy = {
		[1]=90,
	},
	r = {
		[1]=0,
	},
})
animation.loadChildFor('parent')
animation.loadEntity('right arm','data/sleve.png',{
	imagepath='data/sleve.png',
	layer=1,
	ofy=12,
	y=0,
	x=0,
	name='right arm',
	ry=285,
	rx=355,
	sx=1,
	sy=1,
	ofx=24,
	ox = {
		[6]=20,
		[2]=13,
		[3]=20,
		[1]=11,
		[4]=17,
		[5]=14,
		[7]=13,
	},
	oy = {
		[6]=19,
		[2]=6,
		[3]=1,
		[1]=11,
		[4]=9,
		[5]=14,
		[7]=15,
	},
	r = {
		[6]=-1.02,
		[2]=-1.78,
		[3]=-2.14,
		[1]=-1.5,
		[4]=-1.7,
		[5]=-1.38,
		[7]=-1.22,
	},
})
animation.loadChildFor('right arm')
animation.loadEntity('right hand','data/arm.png',{
	imagepath='data/arm.png',
	ofy=32,
	y=0,
	x=0,
	sy=1,
	ry=285,
	name='right hand',
	rx=355,
	sx=1,
	ofx=12,
	ox = {
		[6]=28,
		[2]=10,
		[3]=14,
		[1]=15,
		[4]=15,
		[5]=19,
		[7]=23,
	},
	oy = {
		[1]=0,
		[5]=-3,
		[4]=-7,
		[3]=-12,
	},
	r = {
		[1]=1.38,
		[6]=1.1,
		[5]=1.3,
		[3]=0.9,
	},
})
animation.loadChildFor('parent')
animation.loadEntity('left arm','data/sleve.png',{
	imagepath='data/sleve.png',
	layer=-3,
	ofy=12,
	y=0,
	x=0,
	name='left arm',
	ry=285,
	rx=355,
	sx=1,
	sy=1,
	ofx=24,
	ox = {
		[1]=10,
		[2]=20,
	},
	oy = {
		[1]=10,
	},
	r = {
		[1]=-1.62,
		[2]=-1.36,
	},
})
animation.loadChildFor('left arm')
animation.loadEntity('left hand','data/arm.png',{
	imagepath='data/arm.png',
	layer=-3,
	ofy=32,
	y=0,
	x=0,
	name='left hand',
	ry=285,
	rx=355,
	sx=1,
	sy=1,
	ofx=12,
	ox = {
		[6]=9,
		[2]=15,
		[3]=25,
		[1]=18,
		[4]=18,
		[5]=16,
		[7]=13,
	},
	oy = {
		[1]=-11,
		[2]=6,
		[4]=9,
	},
	r = {
		[6]=0.72,
		[2]=1.62,
		[1]=1.5,
		[5]=1.28,
		[7]=1.1,
	},
})
animation.loadChildFor('parent')
animation.loadEntity('right leg','data/leg.png',{
	imagepath='data/leg.png',
	layer=-1,
	ofy=48,
	y=0,
	x=0,
	name='right leg',
	ry=285,
	rx=355,
	sx=1,
	sy=1,
	ofx=24,
	ox = {
		[6]=18,
		[2]=41,
		[3]=47,
		[1]=30,
		[4]=37,
		[5]=28,
		[7]=18,
	},
	oy = {
		[1]=-16,
		[2]=-10,
		[4]=-12,
		[3]=-3,
	},
	r = {
		[6]=0.24,
		[2]=-0.42,
		[3]=-0.7,
		[1]=-0.04,
		[4]=-0.34,
		[5]=-0.02,
		[7]=0.2,
	},
})
animation.loadChildFor('right leg')
animation.loadEntity('right foot','data/foot.png',{
	imagepath='data/foot.png',
	ofy=32,
	y=0,
	x=0,
	sy=1,
	ry=285,
	name='right foot',
	rx=355,
	sx=1,
	ofx=24,
	ox = {
		[6]=23,
		[2]=-24,
		[3]=-15,
		[1]=-7,
		[4]=42,
		[5]=36,
		[7]=-6,
	},
	oy = {
		[6]=-89,
		[2]=-66,
		[3]=-64,
		[1]=-82,
		[4]=-89,
		[7]=-73,
	},
	r = {
		[1]=0.4,
		[2]=0.76,
		[4]=-0.04,
		[7]=0.3,
	},
})
animation.loadChildFor('parent')
animation.loadEntity('left leg','data/leg.png',{
	imagepath='data/leg.png',
	layer=-2,
	ofy=48,
	y=0,
	x=0,
	name='left leg',
	ry=285,
	rx=355,
	sx=1,
	sy=1,
	ofx=24,
	ox = {
		[2]=23,
		[3]=13,
		[1]=29,
		[4]=19,
		[5]=34,
	},
	oy = {
		[1]=-20,
		[5]=-7,
	},
	r = {
		[6]=-0.44,
		[2]=0.04,
		[3]=0.28,
		[1]=-0.18,
		[4]=0.18,
		[5]=-0.28,
		[7]=-0.3,
	},
})
animation.loadChildFor('left leg')
animation.loadEntity('left foot','data/foot.png',{
	imagepath='data/foot.png',
	layer=-2,
	ofy=32,
	y=0,
	x=0,
	name='left foot',
	ry=285,
	rx=355,
	sx=1,
	sy=1,
	ofx=24,
	ox = {
		[6]=49,
		[2]=23,
		[3]=14,
		[1]=33,
		[4]=-14,
		[5]=-11,
	},
	oy = {
		[6]=-80,
		[2]=-90,
		[1]=-92,
		[4]=-78,
		[5]=-68,
	},
	r = {
		[1]=0,
		[6]=-0.16,
		[4]=0.38,
		[5]=0.54,
	},
})
