local animation = {
	anim = {
		keyframes=1,
		r=0,
		imagePath='data/',
		timer=0.403,
		y=250,
		x=335,
		name='stand',
		facing='left',
		speed=1,
		lastTime=345.473,
		keyframe=1,
	},
	entities = {
		{'body',{
			{'head'},
			{'right arm',
				{'right hand'}},
			{'left arm',
				{'left hand'}},
			{'right leg',
				{'right foot'}},
			{'left leg',
				{'left foot'}}}}
	},
	keyframes = {

		['body'] = {
			ox = {
				[1]=24,
			},
			oy = {
				[1]=48,
			},
			r = {
				[1]=0,
			},
		},

		['head'] = {
			ox = {
				[1]=30,
			},
			oy = {
				[1]=90,
			},
			r = {
				[1]=0,
			},
			layer = -1,
		},

		['right arm'] = {
			ox = {
				[1]=21,
			},
			oy = {
				[1]=33,
			},
			r = {
				[1]=-0.92,
			},
			layer = 3,
		},

		['right hand'] = {
			ox = {
				[1]=36,
			},
			oy = {
				[1]=14,
			},
			r = {
				[1]=0.58,
			},
			layer = 2,
		},

		['left arm'] = {
			ox = {
				[1]=8,
			},
			oy = {
				[1]=15,
			},
			r = {
				[1]=-1.06,
			},
			layer = -2,
		},

		['left hand'] = {
			ox = {
				[1]=7,
			},
			oy = {
				[1]=4,
			},
			r = {
				[1]=0.42,
			},
			layer = -2,
		},

		['right leg'] = {
			ox = {
				[1]=24,
			},
			oy = {
				[1]=-16,
			},
			r = {
				[1]=0.14,
			},
			layer = -1,
		},

		['right foot'] = {
			ox = {
				[1]=36,
			},
			oy = {
				[1]=-86,
			},
			r = {
				[1]=-0.12,
			},
			layer = -1,
		},

		['left leg'] = {
			ox = {
				[1]=48,
			},
			oy = {
				[1]=-6,
			},
			r = {
				[1]=-0.8,
			},
			layer = -2,
		},

		['left foot'] = {
			ox = {
				[1]=-29,
			},
			oy = {
				[1]=-49,
			},
			r = {
				[1]=1.04,
			},
			layer = -2,
		},
	},
	images = {

		['body'] = {'body.png'},
		['head'] = {'head.png'},
		['right arm'] = {'sleve.png'},
		['right hand'] = {'arm.png'},
		['left arm'] = {'sleve.png'},
		['left hand'] = {'arm.png'},
		['right leg'] = {'leg.png'},
		['right foot'] = {'foot.png'},
		['left leg'] = {'leg.png'},
		['left foot'] = {'foot.png'},
	}
}
return animation